%YAML 1.1
%TAG !u! tag:unity3d.com,2011:
--- !u!114 &-6774882537527598316
MonoBehaviour:
  m_ObjectHideFlags: 0
  m_CorrespondingSourceObject: {fileID: 0}
  m_PrefabInstance: {fileID: 0}
  m_PrefabAsset: {fileID: 0}
  m_GameObject: {fileID: 0}
  m_Enabled: 1
  m_EditorHideFlags: 0
  m_Script: {fileID: 11500000, guid: ceb653cd98e289a4e8697a1af55201f2, type: 3}
  m_Name: 
  m_EditorClassIdentifier: 
  Path: event:/Shower
  guid: cab724d44fcb034bbbe324d2331403f8
  Banks:
  - {fileID: 3819393232442974716}
  IsStream: 1
  Is3D: 1
  IsOneShot: 0
  Parameters: []
  MinDistance: 1
  MaxDistance: 20
  Length: 1419
--- !u!114 &-4222383314686459901
MonoBehaviour:
  m_ObjectHideFlags: 0
  m_CorrespondingSourceObject: {fileID: 0}
  m_PrefabInstance: {fileID: 0}
  m_PrefabAsset: {fileID: 0}
  m_GameObject: {fileID: 0}
  m_Enabled: 1
  m_EditorHideFlags: 0
  m_Script: {fileID: 11500000, guid: ceb653cd98e289a4e8697a1af55201f2, type: 3}
  m_Name: 
  m_EditorClassIdentifier: 
  Path: event:/AlterraMiniBathroom/Shower
  guid: cab724d44fcb034bbbe324d2331403f8
  Banks:
  - {fileID: 3819393232442974716}
  IsStream: 1
  Is3D: 1
  IsOneShot: 0
  Parameters: []
  MinDistance: 1
  MaxDistance: 20
  Length: 1419
--- !u!114 &11400000
MonoBehaviour:
  m_ObjectHideFlags: 0
  m_CorrespondingSourceObject: {fileID: 0}
  m_PrefabInstance: {fileID: 0}
  m_PrefabAsset: {fileID: 0}
  m_GameObject: {fileID: 0}
  m_Enabled: 1
  m_EditorHideFlags: 0
  m_Script: {fileID: 11500000, guid: d32cf7c32a3ed8347bac48ef5ed56d82, type: 3}
  m_Name: FMODStudioCache
  m_EditorClassIdentifier: 
  EditorBanks:
  - {fileID: 6721704649646857209}
  - {fileID: 3819393232442974716}
  EditorEvents:
  - {fileID: -4222383314686459901}
  MasterBanks:
  - {fileID: 3819393232442974716}
  StringsBanks:
  - {fileID: 6721704649646857209}
  stringsBankWriteTime: 637476273574530596
  cacheVersion: 3
--- !u!114 &321055453171986296
MonoBehaviour:
  m_ObjectHideFlags: 0
  m_CorrespondingSourceObject: {fileID: 0}
  m_PrefabInstance: {fileID: 0}
  m_PrefabAsset: {fileID: 0}
  m_GameObject: {fileID: 0}
  m_Enabled: 1
  m_EditorHideFlags: 0
  m_Script: {fileID: 11500000, guid: c18180ecb35941f4682ae60107b85b7c, type: 3}
  m_Name: 
  m_EditorClassIdentifier: 
  Path: F:\System Folders\Documents\FMOD Studio\Projects\FCStudios\Build\Desktop\Master
    Bank.strings.bank
  lastModified: 637476244504890144
  LoadResult: 0
  FileSizes:
  - Name: Desktop
    Value: 716
  Exists: 0
--- !u!114 &3819393232442974716
MonoBehaviour:
  m_ObjectHideFlags: 0
  m_CorrespondingSourceObject: {fileID: 0}
  m_PrefabInstance: {fileID: 0}
  m_PrefabAsset: {fileID: 0}
  m_GameObject: {fileID: 0}
  m_Enabled: 1
  m_EditorHideFlags: 0
  m_Script: {fileID: 11500000, guid: c18180ecb35941f4682ae60107b85b7c, type: 3}
  m_Name: 
  m_EditorClassIdentifier: 
  Path: F:\System Folders\Documents\FMOD Studio\Projects\FCStudios\Build\Desktop\FCS
    Master Bank.bank
  lastModified: 637476273574502149
  LoadResult: 0
  FileSizes:
  - Name: Desktop
    Value: 1024128
  Exists: 1
--- !u!114 &6292583088953796140
MonoBehaviour:
  m_ObjectHideFlags: 0
  m_CorrespondingSourceObject: {fileID: 0}
  m_PrefabInstance: {fileID: 0}
  m_PrefabAsset: {fileID: 0}
  m_GameObject: {fileID: 0}
  m_Enabled: 1
  m_EditorHideFlags: 0
  m_Script: {fileID: 11500000, guid: c18180ecb35941f4682ae60107b85b7c, type: 3}
  m_Name: 
  m_EditorClassIdentifier: 
  Path: F:\System Folders\Documents\FMOD Studio\Projects\FCStudios\Build\Desktop\Master
    Bank.bank
  lastModified: 637476244504860214
  LoadResult: 0
  FileSizes:
  - Name: Desktop
    Value: 1024128
  Exists: 0
--- !u!114 &6721704649646857209
MonoBehaviour:
  m_ObjectHideFlags: 0
  m_CorrespondingSourceObject: {fileID: 0}
  m_PrefabInstance: {fileID: 0}
  m_PrefabAsset: {fileID: 0}
  m_GameObject: {fileID: 0}
  m_Enabled: 1
  m_EditorHideFlags: 0
  m_Script: {fileID: 11500000, guid: c18180ecb35941f4682ae60107b85b7c, type: 3}
  m_Name: 
  m_EditorClassIdentifier: 
  Path: F:\System Folders\Documents\FMOD Studio\Projects\FCStudios\Build\Desktop\FCS
    Master Bank.strings.bank
  lastModified: 637476273574530596
  LoadResult: 0
  FileSizes:
  - Name: Desktop
    Value: 740
  Exists: 1
