%YAML 1.1
%TAG !u! tag:unity3d.com,2011:
--- !u!21 &2100000
Material:
  serializedVersion: 6
  m_ObjectHideFlags: 0
  m_CorrespondingSourceObject: {fileID: 0}
  m_PrefabInstance: {fileID: 0}
  m_PrefabAsset: {fileID: 0}
  m_Name: bubble_02_sheet_add_underwaterCamera
  m_Shader: {fileID: 46, guid: 0000000000000000f000000000000000, type: 0}
  m_ShaderKeywords: FX_ADDFOG FX_DEFORM_OFF FX_NEARCLIP_OFF FX_SOFTEDGES FX_UNDERWATER
    WBOIT _ALPHABLEND_ON _EMISSION
  m_LightmapFlags: 1
  m_EnableInstancingVariants: 0
  m_DoubleSidedGI: 0
  m_CustomRenderQueue: 3000
  stringTagMap:
    RenderType: Transparent
  disabledShaderPasses: []
  m_SavedProperties:
    serializedVersion: 3
    m_TexEnvs:
    - _BumpMap:
        m_Texture: {fileID: 0}
        m_Scale: {x: 1, y: 1}
        m_Offset: {x: 0, y: 0}
    - _DeformMap:
        m_Texture: {fileID: 0}
        m_Scale: {x: 1, y: 1}
        m_Offset: {x: 0, y: 0}
    - _DetailAlbedoMap:
        m_Texture: {fileID: 0}
        m_Scale: {x: 1, y: 1}
        m_Offset: {x: 0, y: 0}
    - _DetailMask:
        m_Texture: {fileID: 0}
        m_Scale: {x: 1, y: 1}
        m_Offset: {x: 0, y: 0}
    - _DetailNormalMap:
        m_Texture: {fileID: 0}
        m_Scale: {x: 1, y: 1}
        m_Offset: {x: 0, y: 0}
    - _EmissionMap:
        m_Texture: {fileID: 0}
        m_Scale: {x: 1, y: 1}
        m_Offset: {x: 0, y: 0}
    - _MainTex:
        m_Texture: {fileID: 2800000, guid: 92b7dd5197ed89540a2e08a683357689, type: 3}
        m_Scale: {x: 1, y: 1}
        m_Offset: {x: 0, y: 0}
    - _MainTex2:
        m_Texture: {fileID: 0}
        m_Scale: {x: 1, y: 1}
        m_Offset: {x: 0, y: 0}
    - _MetallicGlossMap:
        m_Texture: {fileID: 0}
        m_Scale: {x: 1, y: 1}
        m_Offset: {x: 0, y: 0}
    - _NormalMap:
        m_Texture: {fileID: 0}
        m_Scale: {x: 1, y: 1}
        m_Offset: {x: 0, y: 0}
    - _OcclusionMap:
        m_Texture: {fileID: 0}
        m_Scale: {x: 1, y: 1}
        m_Offset: {x: 0, y: 0}
    - _ParallaxMap:
        m_Texture: {fileID: 0}
        m_Scale: {x: 1, y: 1}
        m_Offset: {x: 0, y: 0}
    - _RefractMap:
        m_Texture: {fileID: 0}
        m_Scale: {x: 1, y: 1}
        m_Offset: {x: 0, y: 0}
    m_Floats:
    - FX_LightMode: 0
    - _AffectedByDayNightCycle: 1
    - _AlphaPow: 1
    - _BumpScale: 1
    - _ClipFade: 0
    - _ClipOffset: 0
    - _Cutoff: 0.001
    - _DeformStrength: 0.2
    - _DetailNormalMapScale: 1
    - _DstBlend: 10
    - _DstBlend2: 10
    - _FresnelFade: 2
    - _FresnelPow: 5
    - _GlossMapScale: 1
    - _Glossiness: 0.5
    - _GlossyReflections: 1
    - _InvFade: 1
    - _LightDesaturation: 0.8
    - _LightWrapAround: 0.2
    - _LocalFloodLevel: 0
    - _Metallic: 0
    - _Mode: 2
    - _MyCullVariable: 2
    - _NormalSharpness: 0.25
    - _NormalStrength: 1
    - _OcclusionStrength: 1
    - _Parallax: 0.02
    - _RefractStrength: 0.2
    - _SeaLevel: 0
    - _SelfIllumination: 0.003
    - _SmoothnessTextureChannel: 0
    - _SpecularHighlights: 1
    - _Speed: 1
    - _SrcBlend: 5
    - _SrcBlend2: 0
    - _SurfFade: 0.2
    - _UVSec: 0
    - _ZOffset: 0
    - _ZWrite: 0
    - _Ztest: 2
    m_Colors:
    - _Color: {r: 1, g: 1, b: 1, a: 1}
    - _ColorStrength: {r: 1, g: 1, b: 1, a: 1}
    - _ColorStrengthAtNight: {r: 1, g: 1, b: 1, a: 1}
    - _DeformMap_Speed: {r: 0.1, g: 0.1, b: 0, a: 0}
    - _DeformMap_TriplanarUV: {r: 0.5, g: 0.5, b: 0.5, a: 0}
    - _EmissionColor: {r: 0, g: 0, b: 0, a: 1}
    - _Frequency: {r: 0.5, g: 0.5, b: 0.5, a: 0}
    - _MainTex2_Speed: {r: 0.5, g: 0, b: 0, a: 0}
    - _MainTex2_TriplanarUV: {r: 0.5, g: 0.5, b: 0.5, a: 0}
    - _MainTex_Speed: {r: 0.5, g: 0.5, b: 0.5, a: 0}
    - _MainTex_TriplanarUV: {r: 0.5, g: 0.5, b: 0.5, a: 0}
    - _NormalMap_Speed: {r: 0.1, g: 0.1, b: 0, a: 0}
    - _NormalMap_TriplanarUV: {r: 1, g: 1, b: 1, a: 1}
    - _RefractMap_Speed: {r: 0.5, g: 0.5, b: 0.5, a: 0}
    - _RefractMap_TriplanarUV: {r: 1, g: 1, b: 1, a: 1}
    - _Scale: {r: 0, g: 1, b: 0, a: 0}
