%YAML 1.1
%TAG !u! tag:unity3d.com,2011:
--- !u!21 &2100000
Material:
  serializedVersion: 6
  m_CorrespondingSourceObject: {fileID: 0}
  m_PrefabInstance: {fileID: 0}
  m_PrefabAsset: {fileID: 0}
  m_Name: EncyclopediaAudioTimeline
  m_Shader: {fileID: 4800000, guid: dac121e2f9b75474682542f4f99749b2, type: 3}
  m_ShaderKeywords: _FILL_HORIZONTAL
  m_LightmapFlags: 5
  m_EnableInstancingVariants: 0
  m_DoubleSidedGI: 0
  m_CustomRenderQueue: -1
  stringTagMap: {}
  disabledShaderPasses: []
  m_SavedProperties:
    serializedVersion: 3
    m_TexEnvs:
    - _BarTex:
        m_Texture: {fileID: 2800000, guid: d27015d36c1eaab4eae44105c52a0336, type: 3}
        m_Scale: {x: 1, y: 1}
        m_Offset: {x: 0, y: 0}
    - _MainTex:
        m_Texture: {fileID: 0}
        m_Scale: {x: 1, y: 1}
        m_Offset: {x: 0, y: 0}
    m_Floats:
    - _Amount: 0
    - _BottomBorder: 0.11
    - _ColorMask: 15
    - _Fill: 0
    - _SeparatorSmooth: 0.5
    - _SeparatorWidth: 2
    - _Shear: 0
    - _ShearBottom: 0
    - _ShearTop: 0
    - _Stencil: 0
    - _StencilComp: 8
    - _StencilOp: 0
    - _StencilReadMask: 255
    - _StencilWriteMask: 255
    - _Subdivide: 0
    - _Subdivisions: 1
    - _TopBorder: 0.002
    - _UseBackground: 0
    - _UseUIAlphaClip: 0
    m_Colors:
    - _Color: {r: 1, g: 1, b: 1, a: 1}
