%YAML 1.1
%TAG !u! tag:unity3d.com,2011:
--- !u!1 &2907147484074118264
GameObject:
  m_ObjectHideFlags: 0
  m_CorrespondingSourceObject: {fileID: 0}
  m_PrefabInstance: {fileID: 0}
  m_PrefabAsset: {fileID: 0}
  serializedVersion: 6
  m_Component:
  - component: {fileID: 5213553825700127101}
  m_Layer: 0
  m_Name: model
  m_TagString: Untagged
  m_Icon: {fileID: 0}
  m_NavMeshLayer: 0
  m_StaticEditorFlags: 0
  m_IsActive: 1
--- !u!4 &5213553825700127101
Transform:
  m_ObjectHideFlags: 0
  m_CorrespondingSourceObject: {fileID: 0}
  m_PrefabInstance: {fileID: 0}
  m_PrefabAsset: {fileID: 0}
  m_GameObject: {fileID: 2907147484074118264}
  m_LocalRotation: {x: 0, y: 0, z: 0, w: 1}
  m_LocalPosition: {x: 0, y: 0, z: 0}
  m_LocalScale: {x: 1, y: 1, z: 1}
  m_Children:
  - {fileID: 6146229729080198413}
  m_Father: {fileID: 8541136605410401246}
  m_RootOrder: 0
  m_LocalEulerAnglesHint: {x: 0, y: 0, z: 0}
--- !u!1 &5122617786418727707
GameObject:
  m_ObjectHideFlags: 0
  m_CorrespondingSourceObject: {fileID: 0}
  m_PrefabInstance: {fileID: 0}
  m_PrefabAsset: {fileID: 0}
  serializedVersion: 6
  m_Component:
  - component: {fileID: 8541136605410401246}
  m_Layer: 0
  m_Name: AlterraWallSign
  m_TagString: Untagged
  m_Icon: {fileID: 0}
  m_NavMeshLayer: 0
  m_StaticEditorFlags: 0
  m_IsActive: 1
--- !u!4 &8541136605410401246
Transform:
  m_ObjectHideFlags: 0
  m_CorrespondingSourceObject: {fileID: 0}
  m_PrefabInstance: {fileID: 0}
  m_PrefabAsset: {fileID: 0}
  m_GameObject: {fileID: 5122617786418727707}
  m_LocalRotation: {x: 0, y: 0, z: 0, w: 1}
  m_LocalPosition: {x: 0, y: 0, z: 0}
  m_LocalScale: {x: 1, y: 1, z: 1}
  m_Children:
  - {fileID: 5213553825700127101}
  m_Father: {fileID: 0}
  m_RootOrder: 0
  m_LocalEulerAnglesHint: {x: 0, y: 0, z: 0}
--- !u!1001 &4790262832454467810
PrefabInstance:
  m_ObjectHideFlags: 0
  serializedVersion: 2
  m_Modification:
    m_TransformParent: {fileID: 5213553825700127101}
    m_Modifications:
    - target: {fileID: 2408014224197892092, guid: bc8b773dbe5777b488c1ba223a9db778,
        type: 3}
      propertyPath: m_Name
      value: AlterraSignBody
      objectReference: {fileID: 0}
    - target: {fileID: 1671299409774757359, guid: bc8b773dbe5777b488c1ba223a9db778,
        type: 3}
      propertyPath: m_LocalPosition.x
      value: 0
      objectReference: {fileID: 0}
    - target: {fileID: 1671299409774757359, guid: bc8b773dbe5777b488c1ba223a9db778,
        type: 3}
      propertyPath: m_LocalPosition.y
      value: 0
      objectReference: {fileID: 0}
    - target: {fileID: 1671299409774757359, guid: bc8b773dbe5777b488c1ba223a9db778,
        type: 3}
      propertyPath: m_LocalPosition.z
      value: 0.036
      objectReference: {fileID: 0}
    - target: {fileID: 1671299409774757359, guid: bc8b773dbe5777b488c1ba223a9db778,
        type: 3}
      propertyPath: m_LocalRotation.x
      value: -0
      objectReference: {fileID: 0}
    - target: {fileID: 1671299409774757359, guid: bc8b773dbe5777b488c1ba223a9db778,
        type: 3}
      propertyPath: m_LocalRotation.y
      value: -0
      objectReference: {fileID: 0}
    - target: {fileID: 1671299409774757359, guid: bc8b773dbe5777b488c1ba223a9db778,
        type: 3}
      propertyPath: m_LocalRotation.z
      value: -0
      objectReference: {fileID: 0}
    - target: {fileID: 1671299409774757359, guid: bc8b773dbe5777b488c1ba223a9db778,
        type: 3}
      propertyPath: m_LocalRotation.w
      value: 1
      objectReference: {fileID: 0}
    - target: {fileID: 1671299409774757359, guid: bc8b773dbe5777b488c1ba223a9db778,
        type: 3}
      propertyPath: m_RootOrder
      value: 0
      objectReference: {fileID: 0}
    - target: {fileID: 1671299409774757359, guid: bc8b773dbe5777b488c1ba223a9db778,
        type: 3}
      propertyPath: m_LocalEulerAnglesHint.x
      value: 0
      objectReference: {fileID: 0}
    - target: {fileID: 1671299409774757359, guid: bc8b773dbe5777b488c1ba223a9db778,
        type: 3}
      propertyPath: m_LocalEulerAnglesHint.y
      value: 0
      objectReference: {fileID: 0}
    - target: {fileID: 1671299409774757359, guid: bc8b773dbe5777b488c1ba223a9db778,
        type: 3}
      propertyPath: m_LocalEulerAnglesHint.z
      value: 0
      objectReference: {fileID: 0}
    m_RemovedComponents: []
  m_SourcePrefab: {fileID: 100100000, guid: bc8b773dbe5777b488c1ba223a9db778, type: 3}
--- !u!4 &6146229729080198413 stripped
Transform:
  m_CorrespondingSourceObject: {fileID: 1671299409774757359, guid: bc8b773dbe5777b488c1ba223a9db778,
    type: 3}
  m_PrefabInstance: {fileID: 4790262832454467810}
  m_PrefabAsset: {fileID: 0}
