{
    "MonoBehaviour": {
        "m_Enabled": true,
        "m_EditorHideFlags": 0,
        "m_Name": "FBX Export Settings",
        "m_EditorClassIdentifier": "Unity.Formats.Fbx.Editor:UnityEditor.Formats.Fbx.Exporter:ExportSettings",
        "ExportOutsideProject": true,
        "Verbose": false,
        "launchAfterInstallation": true,
        "HideSendToUnityMenu": true,
        "BakeAnimation": true,
        "showConvertToPrefabDialog": true,
        "integrationSavePath": "F:/System Folders/Documents/UnityTo3DSMaxIntergration",
        "selectedDCCApp": 0,
        "prefabSavePaths": [
            "."
        ],
        "fbxSavePaths": [
            "F:/System Folders/Desktop",
            "."
        ],
        "selectedFbxPath": 0,
        "selectedPrefabPath": 0,
        "dccOptionNames": [
            "3ds Max 2018"
        ],
        "dccOptionPaths": [
            "F:/Program Files/Autodesk/3ds Max 2018/3dsmax.exe"
        ],
        "exportModelSettingsSerialize": {
            "exportFormat": 0,
            "animatedSkinnedMesh": false,
            "mayaCompatibleNaming": true,
            "include": 0,
            "lodLevel": 0,
            "objectPosition": 0,
            "exportUnrendered": true
        },
        "convertToPrefabSettingsSerialize": {
            "exportFormat": 0,
            "animatedSkinnedMesh": false,
            "mayaCompatibleNaming": true
        }
    }
}